[
    {
      "list": "mine",
      "id": 0,
      "items": [
        {
          "id": 0,
          "text": "Хоккей",
          "reported": false
        },
        {
          "id": 1,
          "text": "Высокоточная вёрстка под старые версии Microsoft Internet Explorer, начиная с версии 5.01",
          "reported": false
        }
      ]
    },
    {
      "list": "friend",
      "id": 1,
      "items": [
        {
          "id": 0,
          "text": "Баскетбол",
          "reported": false
        },
        {
          "id": 1,
          "text": "Нарезка Photoshop/Fireworks макетов на скорость, в экстримельных условиях, на природе",
          "reported": false
        }
      ]
    }
]

        